<?xml version="1.0" encoding="utf-8"?>
<!-- Generator: Adobe Illustrator 23.0.1, SVG Export Plug-In . SVG Version: 6.00 Build 0)  -->
<svg version="1.1" id="Layer_1" xmlns="http://www.w3.org/2000/svg" xmlns:xlink="http://www.w3.org/1999/xlink" x="0px" y="0px"
	 viewBox="0 0 362 52" style="enable-background:new 0 0 362 52;" xml:space="preserve">
<style type="text/css">
	.st0{opacity:0.5;fill:#030F2B;}
	.st1{fill:#030F2B;}
	.st2{opacity:0.5;fill:#1EB6C1;}
	.st3{fill:#1EB6C1;}
</style>
<g>
	<g>
		<g>
			<path class="st0" d="M28.59,30.59c0,2.24-0.39,4.11-1.18,5.61c-0.79,1.5-1.88,2.62-3.29,3.36c-1.41,0.74-3.03,1.11-4.87,1.11
				h-6.28V21.33h6.61c2.98,0,5.23,0.79,6.74,2.38C27.83,25.3,28.59,27.6,28.59,30.59z M22.87,30.78c0-3.48-1.11-5.23-3.33-5.23
				h-1.06v10.83h0.76c1.26,0,2.18-0.46,2.76-1.38C22.59,34.09,22.87,32.68,22.87,30.78z"/>
			<path class="st0" d="M42.83,40.67H32.7v-2.98l2.3-0.92V25.2l-2.3-0.89v-2.98h10.13v2.98l-2.27,0.89v11.56l2.27,0.92V40.67z"/>
			<path class="st0" d="M54.59,29.35h8.18v10.43c-0.94,0.34-2.06,0.62-3.37,0.84c-1.31,0.22-2.63,0.32-3.97,0.32
				c-1.72,0-3.25-0.36-4.6-1.08c-1.35-0.72-2.42-1.82-3.2-3.3c-0.78-1.48-1.16-3.35-1.16-5.61c0-2.02,0.36-3.77,1.08-5.25
				c0.72-1.48,1.8-2.62,3.22-3.43c1.43-0.8,3.19-1.21,5.28-1.21c1.23,0,2.37,0.12,3.44,0.35c1.07,0.23,1.97,0.52,2.71,0.87
				l-1.71,4.09c-0.7-0.34-1.41-0.6-2.11-0.77c-0.7-0.17-1.46-0.26-2.27-0.26c-1.08,0-1.91,0.26-2.48,0.79
				c-0.57,0.52-0.96,1.22-1.16,2.09c-0.21,0.87-0.31,1.82-0.31,2.87c0,1.81,0.35,3.18,1.04,4.13c0.69,0.95,1.6,1.42,2.72,1.42
				c0.09,0,0.26-0.01,0.51-0.03c0.25-0.02,0.5-0.04,0.74-0.08c0.24-0.04,0.42-0.07,0.53-0.11v-3.03h-3.11V29.35z"/>
			<path class="st0" d="M76.3,40.67H66.18v-2.98l2.3-0.92V25.2l-2.3-0.89v-2.98H76.3v2.98l-2.27,0.89v11.56l2.27,0.92V40.67z"/>
			<path class="st0" d="M89,40.67h-5.52V25.61h-4.14v-4.28h13.81v4.28H89V40.67z"/>
			<path class="st0" d="M108.06,40.71l-0.65-3.63h-5.5l-0.7,3.63h-6.09l5.66-19.42h7.58l5.74,19.42H108.06z M106.35,32.8l-0.76-3.22
				c-0.14-0.63-0.32-1.39-0.51-2.29c-0.2-0.89-0.35-1.74-0.46-2.53c-0.11,0.79-0.25,1.63-0.43,2.5c-0.18,0.88-0.34,1.64-0.49,2.29
				l-0.76,3.25H106.35z"/>
			<path class="st0" d="M118.13,40.67V21.33h5.52v15.11h6.77v4.22H118.13z"/>
			<path class="st1" d="M11,40.67V40.4h1.44c0.32,0,0.58-0.14,0.77-0.43c0.19-0.29,0.28-0.63,0.28-1.03V23.07
				c0-0.51-0.12-0.88-0.35-1.11c-0.23-0.23-0.54-0.35-0.92-0.35H11v-0.27h9.42c3.14,0,5.61,0.74,7.42,2.23
				c1.81,1.49,2.71,3.77,2.71,6.84c0,1.97-0.38,3.73-1.15,5.28c-0.77,1.55-1.9,2.77-3.41,3.66c-1.51,0.88-3.36,1.33-5.57,1.33H11z
				 M18.88,40.4h0.89c1.21,0,2.18-0.33,2.92-1c0.74-0.67,1.28-1.73,1.61-3.2c0.33-1.46,0.5-3.39,0.5-5.8c0-2.11-0.17-3.81-0.5-5.1
				c-0.33-1.29-0.87-2.23-1.61-2.82c-0.74-0.59-1.71-0.88-2.9-0.88h-0.92V40.4z"/>
			<path class="st1" d="M32.56,40.67V40.4h1.16c0.51,0,0.85-0.09,1.04-0.27c0.19-0.18,0.28-0.51,0.28-1V23.04
				c0-0.54-0.09-0.92-0.28-1.12c-0.19-0.21-0.54-0.31-1.04-0.31h-1.16v-0.27h10.43v0.27h-1.22c-0.49,0-0.83,0.1-1.02,0.31
				c-0.19,0.21-0.28,0.59-0.28,1.15v16c0,0.51,0.09,0.85,0.28,1.04c0.19,0.19,0.53,0.28,1.02,0.28h1.22v0.27H32.56z"/>
			<path class="st1" d="M55.44,40.94c-2.35,0-4.29-0.42-5.84-1.25c-1.54-0.83-2.7-1.99-3.47-3.48c-0.77-1.49-1.15-3.24-1.15-5.24
				c0-1.95,0.4-3.67,1.19-5.16c0.79-1.49,1.98-2.65,3.55-3.49c1.57-0.84,3.51-1.26,5.82-1.26c2.42,0,4.25,0.32,5.48,0.95
				c1.24,0.63,1.85,1.39,1.85,2.27c0,0.67-0.34,1.27-1.02,1.8c-0.68,0.53-1.74,0.8-3.18,0.8c0-1.43-0.13-2.54-0.38-3.34
				c-0.25-0.8-0.61-1.37-1.08-1.71c-0.47-0.33-1.05-0.5-1.73-0.5c-1.75,0-2.99,0.76-3.72,2.27s-1.1,3.97-1.1,7.37
				c0,2.29,0.17,4.15,0.5,5.58c0.33,1.43,0.88,2.47,1.62,3.13c0.75,0.66,1.76,0.99,3.02,0.99c0.2,0,0.41-0.01,0.64-0.03
				c0.23-0.02,0.46-0.04,0.72-0.08v-6.85c0-0.67-0.12-1.16-0.35-1.49c-0.23-0.32-0.69-0.49-1.35-0.49h-0.51v-0.27h9.29v0.27H64
				c-0.58,0-0.96,0.17-1.14,0.5c-0.18,0.33-0.27,0.86-0.27,1.58v5.5c-1.16,0.54-2.32,0.95-3.49,1.22
				C57.92,40.8,56.7,40.94,55.44,40.94z"/>
			<path class="st1" d="M66.03,40.67V40.4h1.16c0.51,0,0.85-0.09,1.04-0.27c0.19-0.18,0.28-0.51,0.28-1V23.04
				c0-0.54-0.09-0.92-0.28-1.12c-0.19-0.21-0.54-0.31-1.04-0.31h-1.16v-0.27h10.43v0.27h-1.22c-0.49,0-0.83,0.1-1.02,0.31
				c-0.19,0.21-0.28,0.59-0.28,1.15v16c0,0.51,0.09,0.85,0.28,1.04c0.19,0.19,0.53,0.28,1.02,0.28h1.22v0.27H66.03z"/>
			<path class="st1" d="M80.98,40.67V40.4h0.87c0.52,0,0.93-0.1,1.23-0.3c0.3-0.2,0.45-0.68,0.45-1.44V21.6h-1.73
				c-1.01,0-1.82,0.13-2.44,0.38c-0.61,0.25-1.07,0.67-1.37,1.26c-0.3,0.59-0.48,1.39-0.56,2.42l-0.08,1.3h-0.27l0.19-5.63h17.95
				l0.19,5.63h-0.27l-0.11-1.3c-0.09-1.03-0.28-1.84-0.58-2.42c-0.3-0.59-0.74-1.01-1.34-1.26c-0.6-0.25-1.4-0.38-2.41-0.38h-1.71
				v17.17c0,0.72,0.15,1.17,0.46,1.35c0.31,0.18,0.71,0.27,1.22,0.27h0.87v0.27H80.98z"/>
			<path class="st1" d="M94.03,40.67V40.4h1.03c0.45,0,0.88-0.12,1.27-0.35c0.4-0.23,0.72-0.74,0.97-1.52l5.47-17.2h4.09l6.04,17.25
				c0.23,0.65,0.54,1.11,0.91,1.39c0.37,0.28,0.81,0.42,1.31,0.42h0.05v0.27h-9.78V40.4h1.08c0.42,0,0.7-0.08,0.87-0.23
				c0.16-0.15,0.24-0.37,0.24-0.64c0-0.18-0.03-0.38-0.08-0.6c-0.05-0.22-0.12-0.45-0.19-0.7l-1.46-4.66h-6.69l-1.33,4.17
				c-0.11,0.36-0.2,0.69-0.28,0.97c-0.08,0.29-0.12,0.55-0.12,0.79c0,0.29,0.08,0.51,0.23,0.66c0.15,0.15,0.44,0.23,0.85,0.23h1.92
				v0.27H94.03z M99.25,33.3h6.53l-1.9-5.96c-0.11-0.34-0.24-0.78-0.39-1.3c-0.15-0.52-0.31-1.07-0.47-1.64
				c-0.16-0.57-0.32-1.1-0.46-1.58c-0.18,0.67-0.4,1.39-0.65,2.17c-0.25,0.78-0.5,1.54-0.73,2.3L99.25,33.3z"/>
			<path class="st1" d="M115.75,40.67V40.4h1.44c0.25,0,0.49-0.11,0.72-0.34c0.23-0.23,0.34-0.55,0.34-0.96V22.98
				c0-0.45-0.12-0.79-0.37-1.03c-0.24-0.23-0.55-0.35-0.91-0.35h-1.22v-0.27h10.43v0.27h-1.33c-0.49,0-0.8,0.11-0.95,0.34
				c-0.14,0.23-0.22,0.56-0.22,0.99V40.4h3.38c1.28,0,2.3-0.16,3.06-0.47c0.76-0.32,1.32-0.85,1.68-1.6
				c0.36-0.75,0.59-1.77,0.68-3.07l0.05-0.79h0.27l-0.22,6.2H115.75z"/>
		</g>
		<g>
			<path class="st2" d="M148.19,40.67h-5.42V21.33h10.94v4.2h-5.52v3.68h5.06v4.2h-5.06V40.67z"/>
			<path class="st2" d="M167.89,40.67h-10.13v-2.98l2.3-0.92V25.2l-2.3-0.89v-2.98h10.13v2.98l-2.27,0.89v11.56l2.27,0.92V40.67z"/>
			<path class="st2" d="M177.31,21.33c4.98,0,7.47,1.9,7.47,5.71c0,2.35-0.97,4.08-2.9,5.2l5.25,8.42h-6.28l-3.57-7.04h-0.79v7.04
				h-5.52V21.33H177.31z M177.34,25.29h-0.84v4.41h0.73c0.31,0,0.61-0.08,0.92-0.23c0.31-0.15,0.56-0.4,0.77-0.74
				c0.21-0.34,0.31-0.82,0.31-1.44c0-0.61-0.14-1.1-0.43-1.46C178.51,25.47,178.03,25.29,177.34,25.29z"/>
			<path class="st2" d="M203.66,34.79c0,1.07-0.24,2.06-0.73,2.99c-0.49,0.93-1.27,1.69-2.34,2.27c-1.07,0.59-2.5,0.88-4.29,0.88
				c-0.94,0-1.73-0.04-2.37-0.12c-0.64-0.08-1.23-0.21-1.76-0.39c-0.53-0.18-1.11-0.42-1.72-0.7v-4.66
				c1.05,0.52,2.09,0.93,3.14,1.21c1.05,0.28,1.95,0.42,2.71,0.42c0.6,0,1.05-0.14,1.35-0.41c0.31-0.27,0.46-0.61,0.46-1.03
				c0-0.33-0.08-0.61-0.24-0.85c-0.16-0.24-0.47-0.49-0.93-0.74c-0.46-0.25-1.11-0.56-1.96-0.92c-1.08-0.45-1.95-0.93-2.6-1.44
				c-0.65-0.51-1.12-1.12-1.41-1.84c-0.29-0.72-0.43-1.63-0.43-2.74c0-1.25,0.31-2.29,0.93-3.13c0.62-0.84,1.48-1.47,2.56-1.9
				c1.08-0.42,2.33-0.64,3.74-0.64c1.34,0,2.5,0.14,3.51,0.43c1,0.29,1.82,0.61,2.45,0.95l-1.65,4.04
				c-0.74-0.38-1.52-0.68-2.33-0.91c-0.81-0.23-1.53-0.34-2.14-0.34c-0.58,0-0.99,0.12-1.23,0.35c-0.24,0.23-0.37,0.53-0.37,0.89
				c0,0.31,0.1,0.58,0.31,0.81c0.21,0.23,0.57,0.49,1.1,0.77c0.52,0.28,1.27,0.65,2.25,1.12c0.87,0.4,1.6,0.84,2.19,1.33
				c0.6,0.49,1.05,1.07,1.35,1.76C203.51,32.96,203.66,33.8,203.66,34.79z"/>
			<path class="st2" d="M216.82,40.67h-5.52V25.61h-4.14v-4.28h13.81v4.28h-4.14V40.67z"/>
			<path class="st3" d="M140.17,40.67V40.4h0.95c0.58,0,0.98-0.1,1.21-0.3c0.23-0.2,0.34-0.53,0.34-1V22.96
				c0-0.47-0.11-0.81-0.34-1.03c-0.23-0.22-0.49-0.32-0.8-0.32h-1.35v-0.27h15.95l0.19,5.17h-0.27l-0.08-0.84
				c-0.11-1.03-0.31-1.84-0.6-2.42c-0.29-0.59-0.73-1.01-1.33-1.26c-0.6-0.25-1.4-0.38-2.41-0.38h-3.57v9.42h6.36v0.27h-6.36v7.77
				c0,0.42,0.11,0.74,0.33,0.97c0.22,0.23,0.6,0.35,1.14,0.35h1.62v0.27H140.17z"/>
			<path class="st3" d="M157.61,40.67V40.4h1.16c0.51,0,0.85-0.09,1.04-0.27c0.19-0.18,0.28-0.51,0.28-1V23.04
				c0-0.54-0.09-0.92-0.28-1.12c-0.19-0.21-0.54-0.31-1.04-0.31h-1.16v-0.27h10.43v0.27h-1.22c-0.49,0-0.83,0.1-1.02,0.31
				c-0.19,0.21-0.28,0.59-0.28,1.15v16c0,0.51,0.09,0.85,0.28,1.04c0.19,0.19,0.53,0.28,1.02,0.28h1.22v0.27H157.61z"/>
			<path class="st3" d="M169.15,40.67V40.4h1.03c0.34,0,0.67-0.08,0.99-0.24c0.32-0.16,0.47-0.58,0.47-1.25V23.12
				c0-0.43-0.09-0.76-0.26-0.97c-0.17-0.22-0.37-0.36-0.6-0.43c-0.23-0.07-0.43-0.11-0.61-0.11h-1.03v-0.27h9.78
				c2.02,0,3.63,0.21,4.82,0.64c1.19,0.42,2.04,1.02,2.56,1.79c0.51,0.77,0.77,1.67,0.77,2.69c0,1.03-0.18,1.88-0.53,2.55
				c-0.35,0.67-0.82,1.19-1.39,1.57c-0.58,0.38-1.22,0.67-1.92,0.87l3.63,6.61c0.38,0.7,0.69,1.22,0.93,1.56
				c0.24,0.33,0.45,0.55,0.62,0.65c0.17,0.1,0.34,0.15,0.5,0.15h0.05v0.27h-1.54c-1.05,0-1.99-0.05-2.83-0.16
				c-0.84-0.11-1.56-0.34-2.17-0.69c-0.61-0.35-1.06-0.88-1.37-1.58l-2.95-6.61h-1.06v7.28c0,0.67,0.12,1.08,0.37,1.25
				c0.24,0.16,0.56,0.24,0.96,0.24h0.65v0.27H169.15z M177.06,31.35h1.22c1.12,0,1.9-0.36,2.36-1.08c0.45-0.72,0.68-1.89,0.68-3.49
				c0-1.91-0.23-3.25-0.69-4.02c-0.46-0.77-1.26-1.15-2.4-1.15h-1.16V31.35z"/>
			<path class="st3" d="M196.66,40.94c-1.46,0-2.65-0.13-3.57-0.38c-0.92-0.25-1.63-0.58-2.14-0.97c-0.51-0.4-0.85-0.81-1.04-1.25
				c-0.19-0.43-0.28-0.82-0.28-1.16c0-0.81,0.18-1.44,0.53-1.87c0.35-0.43,0.8-0.74,1.34-0.91c0.54-0.17,1.12-0.26,1.73-0.26
				c0,2.22,0.34,3.86,1.02,4.92c0.68,1.06,1.73,1.58,3.15,1.58c1.1,0,1.94-0.28,2.52-0.84c0.58-0.56,0.87-1.32,0.87-2.27
				c0-0.88-0.21-1.58-0.62-2.1c-0.42-0.51-1.02-0.97-1.81-1.35c-0.79-0.39-1.75-0.83-2.87-1.34c-0.87-0.4-1.7-0.83-2.5-1.31
				c-0.8-0.48-1.46-1.1-1.98-1.85c-0.51-0.76-0.77-1.73-0.77-2.92c0-1.16,0.32-2.15,0.96-2.98c0.64-0.83,1.51-1.47,2.61-1.92
				c1.1-0.45,2.34-0.68,3.71-0.68c1.46,0,2.65,0.17,3.57,0.51c0.92,0.34,1.6,0.78,2.04,1.3c0.44,0.52,0.66,1.06,0.66,1.6
				c0,0.69-0.29,1.26-0.88,1.72c-0.59,0.46-1.6,0.69-3.05,0.69c0-1.93-0.25-3.34-0.76-4.21c-0.51-0.88-1.28-1.31-2.33-1.31
				c-0.83,0-1.51,0.25-2.04,0.74c-0.53,0.5-0.8,1.22-0.8,2.18c0,0.7,0.18,1.29,0.53,1.75c0.35,0.46,0.92,0.89,1.69,1.3
				c0.78,0.41,1.81,0.9,3.11,1.48c0.97,0.43,1.86,0.89,2.65,1.38c0.79,0.49,1.43,1.1,1.91,1.84c0.48,0.74,0.72,1.71,0.72,2.9
				c0,1.17-0.32,2.21-0.96,3.11c-0.64,0.9-1.55,1.61-2.74,2.13C199.66,40.68,198.27,40.94,196.66,40.94z"/>
			<path class="st3" d="M208.79,40.67V40.4h0.87c0.52,0,0.93-0.1,1.23-0.3c0.3-0.2,0.45-0.68,0.45-1.44V21.6h-1.73
				c-1.01,0-1.82,0.13-2.44,0.38c-0.61,0.25-1.07,0.67-1.37,1.26c-0.3,0.59-0.48,1.39-0.56,2.42l-0.08,1.3h-0.27l0.19-5.63h17.95
				l0.19,5.63h-0.27l-0.11-1.3c-0.09-1.03-0.28-1.84-0.58-2.42c-0.3-0.59-0.74-1.01-1.34-1.26c-0.6-0.25-1.4-0.38-2.41-0.38h-1.71
				v17.17c0,0.72,0.15,1.17,0.46,1.35c0.31,0.18,0.71,0.27,1.22,0.27h0.87v0.27H208.79z"/>
		</g>
		<g>
			<path class="st2" d="M243.59,40.71l-0.65-3.63h-5.5l-0.7,3.63h-6.09l5.66-19.42h7.58l5.74,19.42H243.59z M241.89,32.8l-0.76-3.22
				c-0.14-0.63-0.32-1.39-0.51-2.29c-0.2-0.89-0.35-1.74-0.46-2.53c-0.11,0.79-0.25,1.63-0.43,2.5c-0.18,0.88-0.34,1.64-0.49,2.29
				l-0.76,3.25H241.89z"/>
			<path class="st2" d="M261.56,40.67h-10.13v-2.98l2.3-0.92V25.2l-2.3-0.89v-2.98h10.13v2.98l-2.27,0.89v11.56l2.27,0.92V40.67z"/>
			<path class="st2" d="M280.41,30.59c0,2.24-0.39,4.11-1.18,5.61c-0.79,1.5-1.88,2.62-3.29,3.36c-1.41,0.74-3.03,1.11-4.87,1.11
				h-6.28V21.33h6.61c2.98,0,5.23,0.79,6.74,2.38C279.65,25.3,280.41,27.6,280.41,30.59z M274.69,30.78c0-3.48-1.11-5.23-3.33-5.23
				h-1.06v10.83h0.76c1.26,0,2.18-0.46,2.76-1.38C274.41,34.09,274.69,32.68,274.69,30.78z"/>
			<path class="st3" d="M229.56,40.67V40.4h1.03c0.45,0,0.88-0.12,1.27-0.35c0.4-0.23,0.72-0.74,0.97-1.52l5.47-17.2h4.09
				l6.04,17.25c0.23,0.65,0.54,1.11,0.91,1.39c0.37,0.28,0.81,0.42,1.31,0.42h0.05v0.27h-9.78V40.4h1.08c0.42,0,0.7-0.08,0.87-0.23
				c0.16-0.15,0.24-0.37,0.24-0.64c0-0.18-0.03-0.38-0.08-0.6s-0.12-0.45-0.19-0.7l-1.46-4.66h-6.69l-1.33,4.17
				c-0.11,0.36-0.2,0.69-0.28,0.97c-0.08,0.29-0.12,0.55-0.12,0.79c0,0.29,0.08,0.51,0.23,0.66c0.15,0.15,0.44,0.23,0.85,0.23h1.92
				v0.27H229.56z M234.79,33.3h6.53l-1.9-5.96c-0.11-0.34-0.24-0.78-0.39-1.3c-0.15-0.52-0.31-1.07-0.47-1.64s-0.32-1.1-0.46-1.58
				c-0.18,0.67-0.4,1.39-0.65,2.17c-0.25,0.78-0.5,1.54-0.73,2.3L234.79,33.3z"/>
			<path class="st3" d="M251.28,40.67V40.4h1.16c0.51,0,0.85-0.09,1.04-0.27c0.19-0.18,0.28-0.51,0.28-1V23.04
				c0-0.54-0.09-0.92-0.28-1.12c-0.19-0.21-0.54-0.31-1.04-0.31h-1.16v-0.27h10.43v0.27h-1.22c-0.49,0-0.83,0.1-1.02,0.31
				c-0.19,0.21-0.28,0.59-0.28,1.15v16c0,0.51,0.09,0.85,0.28,1.04c0.19,0.19,0.53,0.28,1.02,0.28h1.22v0.27H251.28z"/>
			<path class="st3" d="M262.82,40.67V40.4h1.44c0.32,0,0.58-0.14,0.77-0.43c0.19-0.29,0.28-0.63,0.28-1.03V23.07
				c0-0.51-0.12-0.88-0.35-1.11c-0.23-0.23-0.54-0.35-0.92-0.35h-1.22v-0.27h9.42c3.14,0,5.61,0.74,7.42,2.23
				c1.81,1.49,2.71,3.77,2.71,6.84c0,1.97-0.38,3.73-1.15,5.28c-0.77,1.55-1.9,2.77-3.41,3.66c-1.51,0.88-3.36,1.33-5.57,1.33
				H262.82z M270.7,40.4h0.89c1.21,0,2.18-0.33,2.92-1c0.74-0.67,1.28-1.73,1.61-3.2c0.33-1.46,0.5-3.39,0.5-5.8
				c0-2.11-0.17-3.81-0.5-5.1c-0.33-1.29-0.87-2.23-1.61-2.82c-0.74-0.59-1.71-0.88-2.9-0.88h-0.92V40.4z"/>
		</g>
		<g>
			<path class="st2" d="M308.68,40.67h-6.2l-2.92-7.39l-1.35,0.92v6.47h-5.55V21.33h5.55v8.39c0.18-0.42,0.42-0.83,0.7-1.26
				c0.29-0.42,0.53-0.84,0.73-1.23l3.25-5.9h5.98L303.51,30L308.68,40.67z"/>
			<path class="st2" d="M321.89,40.67h-10.13v-2.98l2.3-0.92V25.2l-2.3-0.89v-2.98h10.13v2.98l-2.27,0.89v11.56l2.27,0.92V40.67z"/>
			<path class="st2" d="M334.6,40.67h-5.52V25.61h-4.14v-4.28h13.81v4.28h-4.14V40.67z"/>
			<path class="st3" d="M290.47,40.67V40.4h1.16c0.36,0,0.67-0.11,0.93-0.32c0.26-0.22,0.39-0.56,0.39-1.03V22.88
				c0-0.42-0.11-0.73-0.33-0.95c-0.22-0.22-0.5-0.32-0.84-0.32h-1.33v-0.27h9.88v0.27h-0.92c-0.7,0-1.06,0.43-1.06,1.3v8.99
				l5.77-6.45c0.45-0.49,0.81-0.94,1.08-1.37c0.27-0.42,0.41-0.8,0.41-1.12c0-0.42-0.28-0.74-0.83-0.99
				c-0.55-0.24-1.49-0.37-2.8-0.37v-0.27h8.21v0.27c-0.9,0-1.69,0.21-2.37,0.62c-0.68,0.42-1.31,0.97-1.91,1.65l-3.66,4.09
				l6.28,10.05c0.56,0.92,1.01,1.55,1.34,1.88c0.33,0.33,0.7,0.5,1.1,0.5h0.05v0.27h-2.98c-0.97,0-1.79-0.06-2.44-0.18
				c-0.65-0.12-1.2-0.31-1.65-0.58c-0.45-0.27-0.85-0.63-1.21-1.08c-0.35-0.45-0.72-1.02-1.1-1.71l-2.87-5.28l-0.43,0.49v6.77
				c0,0.42,0.13,0.74,0.39,0.96c0.26,0.23,0.57,0.34,0.93,0.34h0.65v0.27H290.47z"/>
			<path class="st3" d="M311.62,40.67V40.4h1.16c0.51,0,0.85-0.09,1.04-0.27c0.19-0.18,0.28-0.51,0.28-1V23.04
				c0-0.54-0.09-0.92-0.28-1.12c-0.19-0.21-0.54-0.31-1.04-0.31h-1.16v-0.27h10.43v0.27h-1.22c-0.49,0-0.83,0.1-1.02,0.31
				c-0.19,0.21-0.28,0.59-0.28,1.15v16c0,0.51,0.09,0.85,0.28,1.04c0.19,0.19,0.53,0.28,1.02,0.28h1.22v0.27H311.62z"/>
			<path class="st3" d="M326.57,40.67V40.4h0.87c0.52,0,0.93-0.1,1.23-0.3c0.3-0.2,0.45-0.68,0.45-1.44V21.6h-1.73
				c-1.01,0-1.82,0.13-2.44,0.38c-0.61,0.25-1.07,0.67-1.37,1.26c-0.3,0.59-0.48,1.39-0.56,2.42l-0.08,1.3h-0.27l0.19-5.63h17.95
				l0.19,5.63h-0.27l-0.11-1.3c-0.09-1.03-0.28-1.84-0.58-2.42c-0.3-0.59-0.74-1.01-1.34-1.26c-0.6-0.25-1.4-0.38-2.41-0.38h-1.71
				v17.17c0,0.72,0.15,1.17,0.46,1.35c0.31,0.18,0.71,0.27,1.22,0.27h0.87v0.27H326.57z"/>
		</g>
	</g>
	<polygon class="st3" points="354,12.14 350.38,12.14 350.38,8.52 346,8.52 346,12.14 342.38,12.14 342.38,16.52 346,16.52 
		346,20.15 350.38,20.15 350.38,16.52 354,16.52 	"/>
</g>
</svg>
